<svg xmlns="http://www.w3.org/2000/svg" xmlns:xlink="http://www.w3.org/1999/xlink" version="1.1" width="64" height="64" viewBox="0 0 100 100">


		<defs>
			<g id="background">
<path fill="url(#background-gradient)" stroke="none" d=" M 84.2 84.2 Q 98.35 70.1 98.35 50 98.35 30 84.2 15.85 70.1 1.6 50 1.6 30 1.6 15.85 15.85 1.6 30 1.6 50 1.6 70.1 15.85 84.2 30 98.45 50 98.45 70.1 98.45 84.2 84.2 Z"/>
</g><mask id="mask">
<path fill="#FFFFFF" stroke="none" d=" M 83 83.1 Q 96.75 69.35 96.75 50 96.75 30.7 83 16.95 69.25 3.2 50 3.2 30.7 3.2 16.95 16.95 3.2 30.7 3.2 50 3.2 69.35 16.95 83.1 30.7 96.85 50 96.85 69.25 96.85 83 83.1 Z"/>
</mask><g id="bottom-1">
<path fill="#1C395D" fill-opacity="1" stroke="none" d=" M 85.35 85.35 Q 100 70.7 100 50 100 29.25 85.35 14.6 70.7 0 50 0 29.25 0 14.65 14.6 0 29.25 0 50 0 70.7 14.65 85.35 29.25 100 50 100 70.7 100 85.35 85.35 M 96.75 50 Q 96.75 69.35 83 83.1 69.25 96.85 50 96.85 30.7 96.85 16.95 83.1 3.2 69.35 3.2 50 3.2 30.7 16.95 16.95 30.7 3.2 50 3.2 69.25 3.2 83 16.95 96.75 30.7 96.75 50 Z"/>
</g><g id="bottom-2">
<path fill="#ffffff" fill-opacity="1" stroke="none" d=" M 29.6 17.95 Q 30.7 17.15 30.2 15.95 29.9 15.25 29.15 15.05 28.45 14.8 27.85 15.25 21.4 19.35 16.75 25.55 12.1 31.8 10.1 39.25 10 40.1 10.5 40.8 10.9 41.4 11.7 41.4 13 41.4 13.3 40.1 15.15 33.2 19.35 27.45 23.6 21.8 29.6 17.95 M 47.65 9.25 Q 47.15 8.75 46.45 8.85 42.7 9.15 38.85 10.3 38.15 10.5 37.85 11.2 37.55 11.8 37.85 12.5 38.35 13.7 39.8 13.4 43.6 12.4 46.65 12.1 48.15 12.1 48.15 10.5 48.15 9.75 47.65 9.25 Z"/>
</g>
			
	<linearGradient id="background-gradient" x1="0" y1="0" y2="1" x2="0">
		<stop stop-color="#1c395d" offset="0%"/>
		<stop stop-color="#1c395d" offset="100%"/>
	</linearGradient>

			
			
			<g transform="scale(2.074688599643761) translate(0.09999999403953552 0.15000057220458984)" id="picture"><path d="M47.7 20.1l-23-11.8c-.4-.2-1-.2-1.4 0L.3 20.1c-.4.2-.4.5 0 .7l23 11.8c.4.2 1 .2 1.4 0L44 22.7v5.2c0 .1-.1.2-.2.2h-.6c-.1 0-.2.1-.2.2v4.5c0 .1.1.2.2.2h2.7c.1 0 .2-.1.2-.2v-4.5c0-.1-.1-.2-.2-.2h-.6c-.2-.1-.3-.1-.3-.2v-5.7l2.7-1.4c.4-.2.4-.5 0-.7z M24 34.4c-.4 0-1-.1-1.5-.4L7.7 25.8v1c0 .1 0 .1.1.2l-.1-.1v6c0 3.8 7.4 6.9 16.6 6.9 9.1 0 16.5-3.1 16.5-6.9v-6l-.1.1c0-.1 0-.1.1-.2v-1.2L25.5 34c-.5.4-1.1.4-1.5.4z"/></g>
			
	<linearGradient id="picture-gradient" x1="0" y1="0" y2="1" x2="0">
		<stop stop-color="#ffffff" offset="0%"/>
		<stop stop-color="#e5eff9" offset="100%"/>
	</linearGradient>

		</defs>

		

			<use xlink:href="#background" fill="url(#background-gradient)"/>

		

			<g mask="url(#mask)">
				<g transform="             translate(                                 50 50 )                             translate(0 0)  scale(0.65)                               translate(                                 -50 -50 )">
						<use xlink:href="#picture" fill="url(#picture-gradient)"/>
				</g>
			</g>

		<use xlink:href="#bottom-1"/><use xlink:href="#bottom-2"/>



	</svg>